[
    {"_id":"18923", "grouper":"Papeles", "material":"Carton corrugado", "qty":"230 Kg", "pack":"Prensado", "qtypack":"3", "status":"Nueva"},
    {"_id":"18922", "grouper":"Quimicos", "material":"Tinta", "qty":"30 Ltrs", "pack":"Tanque", "qtypack":"1", "status":"En proceso"},
    {"_id":"18921", "grouper":"Desechos hospitalarios", "material":"Jeringas", "qty":"50 Klg", "pack":"Caja", "qtypack":"2", "status":"Cumplida"}
]
